Created by PLY version 3.11 (http://www.dabeaz.com/ply)

Grammar

Rule 0     S' -> command
Rule 1     command -> program_operate
Rule 2     command -> manual
Rule 3     command -> exit
Rule 4     command -> connect
Rule 5     program_operate -> OPERATE KIND
Rule 6     exit -> EXIT
Rule 7     manual -> MANUAL

Terminals, with rules where they appear

EXIT                 : 6
KIND                 : 5
MANUAL               : 7
OPERATE              : 5
error                : 

Nonterminals, with rules where they appear

command              : 0
connect              : 4
exit                 : 3
manual               : 2
program_operate      : 1

